<?xml version="1.0" encoding="utf-8"?>
<!-- Generator: Adobe Illustrator 24.0.2, SVG Export Plug-In . SVG Version: 6.00 Build 0)  -->
<svg version="1.1" id="Layer_1" xmlns="http://www.w3.org/2000/svg" xmlns:xlink="http://www.w3.org/1999/xlink" x="0px" y="0px"
	 viewBox="0 0 200 30" style="enable-background:new 0 0 200 30;" xml:space="preserve">
<style type="text/css">
	.st0{fill:#FFFFFF;}
	.st1{fill:url(#SVGID_1_);}
	.st2{fill:url(#SVGID_2_);}
</style>
<g id="basc">
	<path class="st0" d="M5.03,13.84c0,6.48,4.78,11.98,11.2,12.88l0.71,0.08c0.36,0.03,0.73,0.05,1.1,0.05c0.6,0,1.21-0.03,1.81-0.05
		v-4.23l0,0V7.38h-3.62v15.19c-4.82-1-7.92-5.73-6.92-10.55c0.65-3.12,2.91-5.66,5.94-6.66l0,0c-0.59-1.54,0.18-3.28,1.72-3.87
		s3.28,0.18,3.87,1.72c0.27,0.69,0.27,1.46,0,2.15l0,0c4.68,1.54,7.22,6.59,5.68,11.27c-0.93,2.82-3.2,4.99-6.05,5.8l0,0v4.19
		c7.06-1.34,11.7-8.14,10.36-15.2s-8.14-11.7-15.2-10.36C9.48,2.22,5.03,7.59,5.03,13.84"/>
	<g>
		<linearGradient id="SVGID_1_" gradientUnits="userSpaceOnUse" x1="18.0452" y1="1.1978" x2="18.0452" y2="26.837">
			<stop  offset="0" style="stop-color:#009EE1"/>
			<stop  offset="1" style="stop-color:#0555A7"/>
		</linearGradient>
		<path class="st1" d="M5.03,13.84c0,6.48,4.78,11.98,11.2,12.88l0.71,0.08c0.36,0.03,0.73,0.05,1.1,0.05c0.6,0,1.21-0.03,1.81-0.05
			v-4.23l0,0V7.38h-3.62v15.19c-4.82-1-7.92-5.73-6.92-10.55c0.65-3.12,2.91-5.66,5.94-6.66l0,0c-0.59-1.54,0.18-3.28,1.72-3.87
			s3.28,0.18,3.87,1.72c0.27,0.69,0.27,1.46,0,2.15l0,0c4.68,1.54,7.22,6.59,5.68,11.27c-0.93,2.82-3.2,4.99-6.05,5.8l0,0v4.19
			c7.06-1.34,11.7-8.14,10.36-15.2s-8.14-11.7-15.2-10.36C9.48,2.22,5.03,7.59,5.03,13.84"/>
	</g>
	<path class="st0" d="M15.64,4.27c0,1.32,1.07,2.4,2.4,2.4c1.32,0,2.4-1.07,2.4-2.4c0-1.32-1.07-2.4-2.4-2.4l0,0
		C16.72,1.87,15.64,2.94,15.64,4.27"/>
	<g>
		<linearGradient id="SVGID_2_" gradientUnits="userSpaceOnUse" x1="18.04" y1="2.2527" x2="18.04" y2="6.539">
			<stop  offset="0" style="stop-color:#A3CC39"/>
			<stop  offset="1" style="stop-color:#269F49"/>
		</linearGradient>
		<path class="st2" d="M15.64,4.27c0,1.32,1.07,2.4,2.4,2.4c1.32,0,2.4-1.07,2.4-2.4c0-1.32-1.07-2.4-2.4-2.4l0,0
			C16.72,1.87,15.64,2.94,15.64,4.27"/>
	</g>
	<path class="st0" d="M172.21,29.26c0-3.07-0.1-6.14,0.03-9.2c0.12-3.06,2.85-5.35,5.97-5.26c3.18,0.05,5.74,2.61,5.8,5.79
		c0.06,3.01-2.43,5.7-5.46,5.85c-1.05,0.06-2.1,0-3.25,0c-0.1,1.53-1.06,2.31-2.33,2.79L172.21,29.26z M175.25,23.47
		c1.05,0,1.94,0.01,2.82,0c1.5,0.02,2.74-1.17,2.78-2.67c0.07-1.62-1-2.88-2.57-3.03c-1.5-0.13-2.83,0.95-3.01,2.44
		C175.16,21.24,175.25,22.3,175.25,23.47L175.25,23.47z"/>
	<path class="st0" d="M159.58,29.26c-0.02-3.07-0.13-6.14-0.02-9.21c0.1-3.01,2.88-5.35,6-5.25c3.21,0.1,5.67,2.55,5.71,5.7
		c0.05,3.12-2.3,5.77-5.32,5.94c-1.05,0.06-2.1,0-3.25,0c-0.22,1.43-1.08,2.31-2.36,2.8L159.58,29.26z M162.59,23.47
		c1.08,0,2,0.02,2.91,0c1.54-0.05,2.74-1.33,2.69-2.87v-0.01c-0.02-1.52-1.31-2.85-2.78-2.86c-1.49,0.03-2.72,1.19-2.81,2.68
		C162.55,21.37,162.59,22.33,162.59,23.47L162.59,23.47z"/>
	<path class="st0" d="M34.85,0.78c3.09-0.36,5.09,1.36,5.58,4.73c1.78,0,3.59,0,5.39,0c5.37,0.02,9.84,4.26,10.22,9.68
		c0.37,5.39-3.53,10.28-8.78,11.03c-6.86,0.97-12.38-3.81-12.4-10.75c-0.01-4.46-0.01-8.92,0-13.38L34.85,0.78z M40.34,10.75
		c0,2.03-0.02,3.87,0.01,5.71c0.03,0.42,0.12,0.83,0.28,1.22c0.82,2.41,3.39,3.91,5.77,3.39c2.69-0.6,4.35-2.87,4.12-5.64
		c-0.22-2.64-2.27-4.63-4.87-4.68C43.93,10.72,42.21,10.75,40.34,10.75z"/>
	<path class="st0" d="M93.64,26.19c-4.38,0-8.64,0.36-12.82-0.09c-5.1-0.55-8.85-5.91-8.34-11.09c0.52-5.29,5-9.29,10.18-9.54
		C88.4,5.19,94,10.17,93.68,16.49C93.5,19.72,93.64,22.96,93.64,26.19z M88.11,21.18c0-1.87,0.01-3.59,0-5.31
		c-0.02-2.82-2.12-5.04-4.83-5.12c-2.81-0.08-5.16,1.96-5.32,4.62c-0.2,3.08,1.8,5.61,4.69,5.79C84.4,21.26,86.17,21.18,88.11,21.18
		L88.11,21.18z"/>
	<path class="st0" d="M124.07,26.27c-2.88,0.37-5.25-1.66-5.37-4.66c-0.07-1.89-0.01-3.79-0.02-5.68c-0.02-2.93-2.2-5.17-5.05-5.17
		c-2.85-0.01-5.07,2.22-5.1,5.12c-0.01,1.9,0.01,3.79-0.01,5.68c-0.03,2.4-1.76,4.96-5.5,4.74c0-0.77-0.01-1.55,0-2.34
		c0.06-3.28-0.17-6.59,0.25-9.83c0.72-5.5,5.56-8.94,11.51-8.6c4.74,0.27,9.12,4.67,9.36,9.66c0.17,3.57,0.04,7.16,0.04,10.73
		C124.15,26.05,124.12,26.16,124.07,26.27z"/>
	<path class="st0" d="M150.1,5.52c0.09,3.19-1.73,5.12-4.78,5.23c-3.19,0.11-4.47,1.41-4.5,4.59c-0.01,1.22,0.09,2.45-0.05,3.66
		c-0.44,3.83-3.23,6.81-7.1,7.24c-2.47,0.27-4.99,0.05-7.5,0.05c-0.09-3.19,1.69-5.09,4.76-5.1c2.98-0.02,4.43-1.5,4.48-4.53
		c0.02-1.55-0.03-3.13,0.22-4.65c0.58-3.54,4.09-6.44,7.68-6.48C145.57,5.49,147.84,5.52,150.1,5.52z"/>
	<path class="st0" d="M58.05,26.25c0-3.62,0-7.27,0-10.91c0.01-0.42,0.07-0.84,0.16-1.25C59.18,9,63.37,5.53,68.53,5.53h6.41
		c0.17,3.22-1.62,5.16-4.75,5.23c-0.63,0.01-1.26-0.02-1.89,0c-2.43,0.1-4.59,2.12-4.72,4.56c-0.11,2.1-0.02,4.19-0.07,6.3
		C63.43,24.56,61.02,26.65,58.05,26.25z"/>
	<path class="st0" d="M100.88,26.29c-2.91,0.21-5.23-1.64-5.26-4.36c-0.07-5.31-0.02-10.61-0.01-15.92
		c0.01-0.12,0.04-0.23,0.08-0.35c2.66-0.43,5.23,1.51,5.25,4.11c0.06,5.35,0.02,10.69,0.01,16.04
		C100.94,25.98,100.92,26.13,100.88,26.29z"/>
	<path class="st0" d="M158.5,26.45c-2.4,0-4.63,0.15-6.84-0.04c-2.94-0.25-5.13-2.99-5.02-5.97c0.08-3,2.44-5.44,5.43-5.61
		c3.06-0.23,5.73,1.76,6.26,4.66c0.09,0.41,0.14,0.83,0.16,1.25C158.51,22.59,158.5,24.44,158.5,26.45z M155.3,23.48
		c0-1.12,0.03-2.08,0-3.04c-0.07-1.49-1.28-2.67-2.77-2.7c-1.5,0-2.78,1.29-2.82,2.82c-0.07,1.54,1.13,2.84,2.67,2.91
		C153.29,23.5,154.21,23.47,155.3,23.48L155.3,23.48z"/>
	<path class="st0" d="M145.55,26.42c-2.32-0.04-3.23-1.24-2.83-3.65C144.82,22.63,145.84,23.91,145.55,26.42z"/>
	<path class="st0" d="M189.87,2.7c0.88,0,1.75,0.23,2.52,0.66c0.8,0.43,1.46,1.09,1.9,1.88c0.91,1.58,0.92,3.52,0.01,5.11
		c-0.44,0.79-1.09,1.45-1.88,1.89c-1.57,0.9-3.51,0.9-5.08,0c-0.79-0.44-1.45-1.09-1.89-1.89c-0.9-1.58-0.9-3.53,0.01-5.11
		c0.44-0.8,1.1-1.45,1.89-1.88C188.12,2.93,188.99,2.7,189.87,2.7 M189.87,3.69c-0.71,0-1.4,0.18-2.02,0.52
		c-0.64,0.35-1.17,0.87-1.52,1.51c-0.74,1.27-0.74,2.84-0.01,4.11c0.35,0.64,0.88,1.17,1.52,1.52c1.26,0.73,2.82,0.73,4.08,0
		c0.64-0.35,1.16-0.88,1.52-1.52c0.74-1.27,0.74-2.84,0-4.11c-0.35-0.64-0.88-1.16-1.52-1.51C191.28,3.88,190.59,3.7,189.87,3.69
		 M187.57,10.53V5.11h1.1c1.03,0,1.61,0,1.73,0.01c0.29,0.01,0.58,0.09,0.85,0.22c0.21,0.12,0.39,0.3,0.51,0.52
		c0.13,0.24,0.2,0.5,0.2,0.78c0.01,0.37-0.13,0.73-0.38,1c-0.29,0.29-0.67,0.48-1.08,0.51c0.14,0.05,0.26,0.11,0.38,0.2
		c0.14,0.13,0.26,0.27,0.37,0.42c0.04,0.05,0.17,0.27,0.4,0.66l0.64,1.09h-1.36l-0.45-0.88c-0.31-0.59-0.56-0.96-0.76-1.12
		c-0.22-0.16-0.49-0.24-0.76-0.23h-0.29v2.22L187.57,10.53z M188.67,7.45h0.45c0.4,0.02,0.79-0.01,1.18-0.07
		c0.3-0.09,0.5-0.36,0.5-0.67c0-0.14-0.04-0.28-0.13-0.4c-0.09-0.12-0.22-0.21-0.37-0.25c-0.39-0.07-0.78-0.1-1.18-0.08h-0.45V7.45z
		"/>
</g>
</svg>
